Lab 3: COVID-19 – csu-ess-lab3
…
## 3.1. 
formatted_pop_data <- pop_data %>%
  filter(COUNTY !="000") %>%
  mutate(
    formatted_STATE = sprintf("%02s", STATE),
    formatted_COUNTY = sprintf("%03s", COUNTY),
    fips = paste0(formatted_STATE, formatted_COUNTY)
    ) %>%
  select(contains("NAME"), contains("2021"), fips)

## 3.2. 
print(formatted_pop_data)

# A tibble: 3,144 × 19
   STNAME  CTYNAME         POPESTIMATE2021 NPOPCHG2021 BIRTHS2021 DEATHS2021
   <chr>   <chr>                     <dbl>       <dbl>      <dbl>      <dbl>
 1 Alabama Autauga County            59203         288        686        696
 2 Alabama Baldwin County           239439        6212       2337       2948
 3 Alabama Barbour County            24533        -436        270        390
 4 Alabama Bibb County               22359         171        240        325
 5 Alabama Blount County             59079         -28        654        875
 6 Alabama Bullock County            10143         -86        111        160
 7 Alabama Butler County             18890        -135        227        297
 8 Alabama Calhoun County           115678        -565       1250       1843
 9 Alabama Chambers County           34488        -163        392        592
10 Alabama Cherokee County           25074         105        254        442
# ℹ 3,134 more rows
# ℹ 13 more variables: NATURALCHG2021 <dbl>, INTERNATIONALMIG2021 <dbl>,
#   DOMESTICMIG2021 <dbl>, NETMIG2021 <dbl>, RESIDUAL2021 <dbl>,
#   GQESTIMATES2021 <dbl>, RBIRTH2021 <dbl>, RDEATH2021 <dbl>,
#   RNATURALCHG2021 <dbl>, RINTERNATIONALMIG2021 <dbl>, RDOMESTICMIG2021 <dbl>,
#   RNETMIG2021 <dbl>, fips <chr>
…
Question 5: Death Toll

library(ggplot2)
library(lubridate)

county_death_ratios <- merged_data %>%
  filter(str_detect(date, "2021")) %>%
  filter(str_detect(date, "12-31")) %>%
  mutate(covid_death_ratio = deaths/DEATHS2021) %>%
  filter(covid_death_ratio >= 0.20)

print(county_death_ratios)

# A tibble: 35 × 30
   date       county     state   fips   cases deaths new_cases new_deaths STNAME
   <date>     <chr>      <chr>   <chr>  <dbl>  <dbl>     <dbl>      <dbl> <chr> 
 1 2021-12-31 Adams      Colora… 08001  95323   1099       915     -93309 Color…
 2 2021-12-31 Alamosa    Colora… 08003   3101     56        14      -3031 Color…
 3 2021-12-31 Arapahoe   Colora… 08005 103551   1075      1446    -101030 Color…
 4 2021-12-31 Bent       Colora… 08011   1958     42         4      -1912 Color…
 5 2021-12-31 Broomfield Colora… 08014   8767     97       133      -8537 Color…
 6 2021-12-31 Chaffee    Colora… 08015   2868     38        16      -2814 Color…
 7 2021-12-31 Cheyenne   Colora… 08017    249      8         1       -240 Color…
 8 2021-12-31 Conejos    Colora… 08021   1193     46         1      -1146 Color…
 9 2021-12-31 Costilla   Colora… 08023    440     13         1       -426 Color…
10 2021-12-31 Crowley    Colora… 08025   2499     27         2      -2470 Color…
# ℹ 25 more rows
# ℹ 21 more variables: CTYNAME <chr>, POPESTIMATE2021 <dbl>, NPOPCHG2021 <dbl>,
#   BIRTHS2021 <dbl>, DEATHS2021 <dbl>, NATURALCHG2021 <dbl>,
#   INTERNATIONALMIG2021 <dbl>, DOMESTICMIG2021 <dbl>, NETMIG2021 <dbl>,
#   RESIDUAL2021 <dbl>, GQESTIMATES2021 <dbl>, RBIRTH2021 <dbl>,
#   RDEATH2021 <dbl>, RNATURALCHG2021 <dbl>, RINTERNATIONALMIG2021 <dbl>,
#   RDOMESTICMIG2021 <dbl>, RNETMIG2021 <dbl>, …
…
## 6.1. 

states_of_interest <- c("New York", "Colorado", "Alabama", "Ohio")
state_cases <- data %>%
  filter(str_detect(state, paste(states_of_interest, collapse = "|"))) %>%
  group_by(date, state) %>%
  summarize(new_cases = sum(cases, na.rm = FALSE))

`summarise()` has grouped output by 'date'. You can override using the
`.groups` argument.

print(state_cases)

# A tibble: 3,192 × 3
# Groups:   date [804]
   date       state    new_cases
   <date>     <chr>        <dbl>
 1 2020-03-01 New York         1
 2 2020-03-02 New York         1
 3 2020-03-03 New York         2
 4 2020-03-04 New York        11
 5 2020-03-05 Colorado         2
 6 2020-03-05 New York        22
 7 2020-03-06 Colorado         8
 8 2020-03-06 New York        44
 9 2020-03-07 Colorado         8
10 2020-03-07 New York        89
# ℹ 3,182 more rows

library(zoo)
state_cases$rolling_mean <- rollmean(state_cases$new_cases, k = 7, align = "right", fill = NA)

print(state_cases)

# A tibble: 3,192 × 4
# Groups:   date [804]
   date       state    new_cases rolling_mean
   <date>     <chr>        <dbl>        <dbl>
 1 2020-03-01 New York         1        NA   
 2 2020-03-02 New York         1        NA   
 3 2020-03-03 New York         2        NA   
 4 2020-03-04 New York        11        NA   
 5 2020-03-05 Colorado         2        NA   
 6 2020-03-05 New York        22        NA   
 7 2020-03-06 Colorado         8         6.71
 8 2020-03-06 New York        44        12.9 
 9 2020-03-07 Colorado         8        13.9 
10 2020-03-07 New York        89        26.3 
# ℹ 3,182 more rows
…
state_cases <- state_cases %>%
  mutate(year = year(date)) %>%
  mutate(year = as.numeric(year))

print(colnames(state_cases))

[1] "date"         "state"        "new_cases"    "rolling_mean" "year"        

state_covid_data <- state_cases %>%
  left_join(population_long, by = c("state", "year")) %>%
  mutate(cases_per_capita = new_cases / total_population)

state_covid_data

# A tibble: 3,192 × 69
# Groups:   date [804]
   date       state    new_cases rolling_mean  year SUMLEV REGION DIVISION STATE
   <date>     <chr>        <dbl>        <dbl> <dbl> <chr>   <dbl>    <dbl> <chr>
 1 2020-03-01 New York         1        NA     2020 040         1        2 36   
 2 2020-03-02 New York         1        NA     2020 040         1        2 36   
 3 2020-03-03 New York         2        NA     2020 040         1        2 36   
 4 2020-03-04 New York        11        NA     2020 040         1        2 36   
 5 2020-03-05 Colorado         2        NA     2020 040         4        8 08   
 6 2020-03-05 New York        22        NA     2020 040         1        2 36   
 7 2020-03-06 Colorado         8         6.71  2020 040         4        8 08   
 8 2020-03-06 New York        44        12.9   2020 040         1        2 36   
 9 2020-03-07 Colorado         8        13.9   2020 040         4        8 08   
10 2020-03-07 New York        89        26.3   2020 040         1        2 36   
# ℹ 3,182 more rows
# ℹ 60 more variables: COUNTY <chr>, CTYNAME <chr>, ESTIMATESBASE2020 <dbl>,
#   NPOPCHG2020 <dbl>, NPOPCHG2021 <dbl>, NPOPCHG2022 <dbl>, NPOPCHG2023 <dbl>,
#   BIRTHS2020 <dbl>, BIRTHS2021 <dbl>, BIRTHS2022 <dbl>, BIRTHS2023 <dbl>,
#   DEATHS2020 <dbl>, DEATHS2021 <dbl>, DEATHS2022 <dbl>, DEATHS2023 <dbl>,
#   NATURALCHG2020 <dbl>, NATURALCHG2021 <dbl>, NATURALCHG2022 <dbl>,
#   NATURALCHG2023 <dbl>, INTERNATIONALMIG2020 <dbl>, …
…
state_covid_data <- state_covid_data %>%
  group_by(state) %>%
  arrange(state, date) %>%
  mutate(rolling_mean_per_capita = rollmean(cases_per_capita, k = 7, fill = NA, align = "right")) %>%
  ungroup()

print(state_covid_data)

# A tibble: 3,192 × 70
   date       state   new_cases rolling_mean  year SUMLEV REGION DIVISION STATE
   <date>     <chr>       <dbl>        <dbl> <dbl> <chr>   <dbl>    <dbl> <chr>
 1 2020-03-13 Alabama         6         91.6  2020 040         3        6 01   
 2 2020-03-14 Alabama        12        123    2020 040         3        6 01   
 3 2020-03-15 Alabama        23        173.   2020 040         3        6 01   
 4 2020-03-16 Alabama        29        228.   2020 040         3        6 01   
 5 2020-03-17 Alabama        39        285.   2020 040         3        6 01   
 6 2020-03-18 Alabama        51        388.   2020 040         3        6 01   
 7 2020-03-19 Alabama        78        609.   2020 040         3        6 01   
 8 2020-03-20 Alabama       106       1031.   2020 040         3        6 01   
 9 2020-03-21 Alabama       131       1738.   2020 040         3        6 01   
10 2020-03-22 Alabama       157       2666.   2020 040         3        6 01   
# ℹ 3,182 more rows
# ℹ 61 more variables: COUNTY <chr>, CTYNAME <chr>, ESTIMATESBASE2020 <dbl>,
#   NPOPCHG2020 <dbl>, NPOPCHG2021 <dbl>, NPOPCHG2022 <dbl>, NPOPCHG2023 <dbl>,
#   BIRTHS2020 <dbl>, BIRTHS2021 <dbl>, BIRTHS2022 <dbl>, BIRTHS2023 <dbl>,
#   DEATHS2020 <dbl>, DEATHS2021 <dbl>, DEATHS2022 <dbl>, DEATHS2023 <dbl>,
#   NATURALCHG2020 <dbl>, NATURALCHG2021 <dbl>, NATURALCHG2022 <dbl>,
#   NATURALCHG2023 <dbl>, INTERNATIONALMIG2020 <dbl>, …
…
library(readr)
location_data <- read_csv('https://raw.githubusercontent.com/mikejohnson51/csu-ess-330/refs/heads/main/resources/county-centroids.csv')

Rows: 3221 Columns: 3
── Column specification ────────────────────────────────────────────────────────
Delimiter: ","
chr (1): fips
dbl (2): LON, LAT

ℹ Use `spec()` to retrieve the full column specification for this data.
ℹ Specify the column types or set `show_col_types = FALSE` to quiet this message.

location_data

# A tibble: 3,221 × 3
   fips     LON   LAT
   <chr>  <dbl> <dbl>
 1 01061  -85.8  31.1
 2 08125 -102.   40.0
 3 17177  -89.7  42.4
 4 28153  -88.7  31.6
 5 34041  -75.0  40.9
 6 46051  -96.8  45.2
 7 51013  -77.1  38.9
 8 21007  -89.0  37.1
 9 37091  -77.0  36.4
10 13057  -84.5  34.2
# ℹ 3,211 more rows
…
